<?xml version="1.0" encoding="utf-8"?>
<!-- Generator: Adobe Illustrator 21.1.0, SVG Export Plug-In . SVG Version: 6.00 Build 0)  -->
<svg version="1.1" id="Layer_1" xmlns="http://www.w3.org/2000/svg" xmlns:xlink="http://www.w3.org/1999/xlink" x="0px" y="0px"
	 viewBox="0 0 2048 2048" style="enable-background:new 0 0 2048 2048;" xml:space="preserve">
<style type="text/css">
	.st0{fill:none;}
	.st1{fill:#FF7900;}
	.st2{fill:#212121;}
</style>
<g id="Layer_x0020_1">
	<rect x="-49.5" y="-199.5" class="st0" width="2215.9" height="2215.9"/>
	<g id="_450615416">
		<path id="_450623312" class="st1" d="M1432.4,1490.1h249.3l-249.3,249.3V1490.1z M1473.9,991.6v166.2H601.4V991.6H1473.9z
			 M1473.9,659.2v166.2H601.4V659.2H1473.9z M1473.9,326.8V493H601.4V326.8L1473.9,326.8L1473.9,326.8z M1388.3,1739.4h-953V77.5
			h1246.4v1371.1h-251.9l-41.5,0v41.6L1388.3,1739.4L1388.3,1739.4z"/>
		<polygon id="_450613064" class="st2" points="1432.4,368.3 643,368.3 643,451.4 1432.4,451.4 		"/>
		<polygon id="_450618272" class="st2" points="1432.4,700.7 643,700.7 643,783.8 1432.4,783.8 		"/>
		<polygon id="_450623120" class="st2" points="1432.4,1033.1 643,1033.1 643,1116.2 1432.4,1116.2 		"/>
	</g>
	<rect x="227.5" y="77.5" class="st0" width="1661.9" height="1661.9"/>
</g>
<g id="Layer_x0020_1_1_">
	
		<rect x="64.6" y="1025.7" transform="matrix(0.4694 -0.883 0.883 0.4694 -1054.4452 1335.42)" class="st0" width="1038.7" height="1038.7"/>
	
		<rect x="194.5" y="1155.6" transform="matrix(0.4694 -0.883 0.883 0.4694 -1054.4446 1335.42)" class="st0" width="779" height="779"/>
	<g id="_449994256">
		<path id="_449993512" class="st2" d="M786.6,1340.2c21.6,22.6,37.3,49.8,46.3,79.1c14.8,48.3,11.2,102.1-14.2,149.9l-171.3,322.3
			l-9.8,18.4l-18.4-9.8l-367.5-195.4l-18.4-9.8l9.8-18.4l171.3-322.3c25.4-47.8,68.1-80.9,116.3-95.7c35.2-10.8,73.4-11.8,110.1-1.7
			c-0.9,11.6,0.3,23.3,3.8,34.7c7.2,23.5,23.3,43.1,45.1,54.7c21.7,11.6,47,14,70.5,6.8C769.7,1350.2,778.6,1345.8,786.6,1340.2
			L786.6,1340.2z"/>
		<path id="_449992240" class="st2" d="M197.7,1628.9c-10.1-5.4-22.7-1.5-28.1,8.6c-5.4,10.1-1.5,22.7,8.6,28.1L711,1948.9
			c10.1,5.4,22.7,1.5,28.1-8.6c5.4-10.1,1.5-22.7-8.6-28.1L197.7,1628.9L197.7,1628.9z"/>
		<path id="_449994136" class="st2" d="M442.2,1829.6c-9.3,17.5-24.8,29.6-42.4,34.9c-17.6,5.4-37.2,4-54.7-5.3
			c-17.5-9.3-29.6-24.8-34.9-42.4c-5.4-17.6-4-37.2,5.3-54.7l36.8,19.5c-3.9,7.4-4.5,15.6-2.2,23c2.3,7.4,7.3,13.9,14.7,17.8
			c7.4,3.9,15.6,4.5,23,2.2c7.4-2.3,13.9-7.3,17.8-14.7L442.2,1829.6L442.2,1829.6z"/>
		<path id="_449994592" class="st2" d="M766.8,1201.2c17.5,9.3,29.6,24.8,34.9,42.4c5.4,17.6,4,37.2-5.3,54.7
			c-9.3,17.5-24.8,29.6-42.4,34.9c-17.6,5.4-37.2,4-54.7-5.3c-17.5-9.3-29.6-24.8-34.9-42.4c-5.4-17.6-4-37.2,5.3-54.7
			c9.3-17.5,24.8-29.6,42.4-34.9C729.7,1190.5,749.3,1191.9,766.8,1201.2L766.8,1201.2z M762,1255.7c-2.3-7.4-7.3-13.9-14.7-17.8
			c-7.4-3.9-15.6-4.5-23-2.2c-7.4,2.3-13.9,7.3-17.8,14.7c-3.9,7.4-4.5,15.6-2.2,23c2.3,7.4,7.3,13.9,14.7,17.8
			c7.4,3.9,15.6,4.5,23,2.2c7.4-2.3,13.9-7.3,17.8-14.7C763.7,1271.4,764.2,1263.1,762,1255.7z"/>
	</g>
</g>
</svg>
